<?xml version="1.0" encoding="UTF-8"?>
<!DOCTYPE sqlMap PUBLIC "-//iBATIS.com//DTD SQL Map 2.0//EN" "http://www.ibatis.com/dtd/sql-map-2.dtd">

<sqlMap namespace="LoginLog">

	<typeAlias alias="egovMap"
		type="egovframework.rte.psl.dataaccess.util.EgovMap" />
	<!-- 로그인로그 VO -->
	<typeAlias alias="loginLog"
		type="egovframework.rte.log.service.LoginLog" />

	<!-- 로그인 로그 등록 -->
	<insert id="LoginLogDAO.logInsertLoginLog" parameterClass="loginLog">
		<![CDATA[
			INSERT INTO XG_COMTN_LOGINLOG 
				( COMPANY_CODE
				  ,	LOG_ID
				  , CONECT_MTHD
				  , CONECT_ID
				  , CONECT_IP
				  , ERROR_OCCRRNC_AT
				  , ERROR_CODE
				  , CREAT_DT )
			VALUES ( #companyCode#
				  , #logId#
				  , #loginMthd#
				  , #loginId#
				  , #loginIp#
				  , #errOccrrAt#
				  , #errorCode#
				  , sysdate)

		]]>
	</insert>

	<!-- 시스템 로그 전날 로그 요약  등록 -->
	<insert id="LoginLogDAO.logInsertLoginLogSummary">
		<![CDATA[
			INSERT INTO XG_SYS_USELOG_SUMMARY

            SELECT TO_CHAR(b.CREAT_DT,'YYYYMMDD')
                 , b.CONECT_ID
                 , b.CONECT_MTHD
                 , DECODE(b.ERROR_CODE,NULL,'LOGOUT',b.ERROR_CODE)
                 , SUM(1) AS ACC_CNT
              FROM XG_SYS_USELOG b
             WHERE NOT EXISTS (SELECT c.OCCRRNC_DE
                                 FROM XG_SYS_USELOG_SUMMARY c
                                WHERE RTRIM(c.OCCRRNC_DE) = TO_CHAR((SYSDATE - 1), 'YYYYMMDD')
                              )
               AND TO_CHAR(b.CREAT_DT,'YYYYMMDD') = TO_CHAR((SYSDATE - 1), 'YYYYMMDD')
             GROUP BY TO_CHAR(b.CREAT_DT,'YYYYMMDD')
                    , b.CONECT_ID
                    , b.CONECT_MTHD
                    , DECODE(b.ERROR_CODE,NULL,'LOGOUT',b.ERROR_CODE)

		]]>
	</insert>

	<!-- 접속 로그 일주일전 로그 삭제 -->
	<delete id="LoginLogDAO.logDeleteLoginLogSummary">
		<![CDATA[
			DELETE FROM XG_SYS_USELOG
			 WHERE to_char(CREAT_DT,'YYYYMMDD') < TO_CHAR((SYSDATE - 7), 'YYYYMMDD')

		]]>
	</delete>

</sqlMap>

